{
    "success": true,
    "description": "",
    "studentAttend": [
        {
            "_id": "5c571064de8e3300340d70e8",
            "studentId": "13520317",
            "uid": "fdfsdfsdfsfsjjj",
            "attendDate": "2019-02-03T16:01:40.430Z",
            "__v": 0
        },
        {
            "_id": "5c57107cde8e3300340d70e9",
            "studentId": "13520319",
            "uid": "fdfsdfsdfsfsjjj",
            "attendDate": "2019-02-03T16:02:04.335Z",
            "__v": 0
        },
        {
            "_id": "5c571197de8e3300340d70ea",
            "studentId": "13520319",
            "uid": "fdfsdfsdfsfsjjj",
            "studentName": "nguyen van a",
            "attendDate": "2019-02-03T16:06:47.492Z",
            "__v": 0
        },
        {
            "_id": "5c5711ccde8e3300340d70eb",
            "studentId": "13520320",
            "uid": "2423342342342",
            "studentName": "vo van b",
            "attendDate": "2019-02-03T16:07:40.346Z",
            "__v": 0
        },
        {
            "_id": "5c5c069f63345a0034b4c637",
            "studentId": "13520315",
            "uid": "2423342342342",
            "studentName": "Le Minh Khanh Hoi",
            "attendDate": "2019-02-07T10:21:19.017Z",
            "__v": 0
        }
    ]
}